EESchema Schematic File Version 2
LIBS:power
LIBS:device
LIBS:switches
LIBS:relays
LIBS:motors
LIBS:transistors
LIBS:conn
LIBS:linear
LIBS:regul
LIBS:74xx
LIBS:cmos4000
LIBS:adc-dac
LIBS:memory
LIBS:xilinx
LIBS:microcontrollers
LIBS:dsp
LIBS:microchip
LIBS:analog_switches
LIBS:motorola
LIBS:texas
LIBS:intel
LIBS:audio
LIBS:interface
LIBS:digital-audio
LIBS:philips
LIBS:display
LIBS:cypress
LIBS:siliconi
LIBS:opto
LIBS:atmel
LIBS:contrib
LIBS:valves
LIBS:w_opto
LIBS:w_connectors
EELAYER 25 0
EELAYER END
$Descr A4 11693 8268
encoding utf-8
Sheet 1 1
Title "7 Segment for Raspberry Clock"
Date "2020-06-12"
Rev "rev A"
Comp ""
Comment1 ""
Comment2 ""
Comment3 ""
Comment4 ""
$EndDescr
$Comp
L 4511B U1
U 1 1 567D5AA9
P 5650 3200
F 0 "U1" H 5650 3100 60  0000 C CNN
F 1 "4511B" H 5650 2950 60  0000 C CNN
F 2 "" H 5650 3200 60  0000 C CNN
F 3 "" H 5650 3200 60  0000 C CNN
	1    5650 3200
	1    0    0    -1  
$EndComp
$Comp
L +9V #PWR01
U 1 1 567DDCD7
P 5650 2100
F 0 "#PWR01" H 5650 1950 50  0001 C CNN
F 1 "+9V" H 5668 2274 50  0000 C CNN
F 2 "" H 5650 2100 50  0000 C CNN
F 3 "" H 5650 2100 50  0000 C CNN
	1    5650 2100
	1    0    0    -1  
$EndComp
$Comp
L GND #PWR02
U 1 1 5E0D3CE7
P 5650 5050
F 0 "#PWR02" H 5650 4800 50  0001 C CNN
F 1 "GND" H 5650 4900 50  0000 C CNN
F 2 "" H 5650 5050 50  0001 C CNN
F 3 "" H 5650 5050 50  0001 C CNN
	1    5650 5050
	1    0    0    -1  
$EndComp
$Comp
L R R1
U 1 1 5EE213F7
P 7050 2900
F 0 "R1" V 7000 3100 50  0000 C CNN
F 1 "56" V 7050 2900 50  0000 C CNN
F 2 "" V 6980 2900 50  0001 C CNN
F 3 "" H 7050 2900 50  0001 C CNN
	1    7050 2900
	0    1    1    0   
$EndComp
$Comp
L R R2
U 1 1 5EE21780
P 7050 3000
F 0 "R2" V 7000 3200 50  0000 C CNN
F 1 "56" V 7050 3000 50  0000 C CNN
F 2 "" V 6980 3000 50  0001 C CNN
F 3 "" H 7050 3000 50  0001 C CNN
	1    7050 3000
	0    1    1    0   
$EndComp
$Comp
L R R3
U 1 1 5EE2180B
P 7050 3100
F 0 "R3" V 7000 3300 50  0000 C CNN
F 1 "56" V 7050 3100 50  0000 C CNN
F 2 "" V 6980 3100 50  0001 C CNN
F 3 "" H 7050 3100 50  0001 C CNN
	1    7050 3100
	0    1    1    0   
$EndComp
$Comp
L R R4
U 1 1 5EE2189A
P 7050 3200
F 0 "R4" V 7000 3400 50  0000 C CNN
F 1 "56" V 7050 3200 50  0000 C CNN
F 2 "" V 6980 3200 50  0001 C CNN
F 3 "" H 7050 3200 50  0001 C CNN
	1    7050 3200
	0    1    1    0   
$EndComp
$Comp
L R R5
U 1 1 5EE21919
P 7050 3300
F 0 "R5" V 7000 3500 50  0000 C CNN
F 1 "56" V 7050 3300 50  0000 C CNN
F 2 "" V 6980 3300 50  0001 C CNN
F 3 "" H 7050 3300 50  0001 C CNN
	1    7050 3300
	0    1    1    0   
$EndComp
$Comp
L R R6
U 1 1 5EE219A4
P 7050 3400
F 0 "R6" V 7000 3600 50  0000 C CNN
F 1 "56" V 7050 3400 50  0000 C CNN
F 2 "" V 6980 3400 50  0001 C CNN
F 3 "" H 7050 3400 50  0001 C CNN
	1    7050 3400
	0    1    1    0   
$EndComp
$Comp
L R R7
U 1 1 5EE21A75
P 7050 3500
F 0 "R7" V 7000 3700 50  0000 C CNN
F 1 "56" V 7050 3500 50  0000 C CNN
F 2 "" V 6980 3500 50  0001 C CNN
F 3 "" H 7050 3500 50  0001 C CNN
	1    7050 3500
	0    1    1    0   
$EndComp
Wire Wire Line
	5650 2100 5650 2350
Wire Wire Line
	7200 2900 7850 2900
Wire Wire Line
	7200 3000 7950 3000
Wire Wire Line
	7200 3100 8050 3100
Wire Wire Line
	7200 3200 8150 3200
Wire Wire Line
	7200 3300 8250 3300
Wire Wire Line
	7200 3400 8350 3400
Wire Wire Line
	7200 3500 8450 3500
$Comp
L 7SEGMENT_CC U2
U 1 1 5EE32ABF
P 8250 4300
F 0 "U2" H 7750 4675 50  0000 R CNN
F 1 "7SEGMENT_CC" H 7750 4600 50  0000 R CNN
F 2 "" H 8300 4000 50  0001 L CNN
F 3 "" H 8250 4320 50  0001 L CNN
	1    8250 4300
	1    0    0    -1  
$EndComp
Wire Wire Line
	6250 2900 6900 2900
Wire Wire Line
	6250 3000 6900 3000
Wire Wire Line
	6250 3100 6900 3100
Wire Wire Line
	6250 3200 6900 3200
Wire Wire Line
	6250 3300 6900 3300
Wire Wire Line
	6250 3400 6900 3400
Wire Wire Line
	6250 3500 6900 3500
Wire Wire Line
	7850 2900 7850 3900
Wire Wire Line
	7950 3000 7950 3900
Wire Wire Line
	8050 3100 8050 3900
Wire Wire Line
	8150 3200 8150 3900
Wire Wire Line
	8250 3300 8250 3900
Wire Wire Line
	8350 3400 8350 3900
Wire Wire Line
	8450 3500 8450 3900
Wire Wire Line
	8350 4850 8350 4700
Wire Wire Line
	8250 4850 8250 4700
Connection ~ 8250 4850
Connection ~ 5650 4850
$Comp
L R R8
U 1 1 5EE33FEA
P 8650 3050
F 0 "R8" H 8800 3000 50  0000 C CNN
F 1 "100" H 8800 3100 50  0000 C CNN
F 2 "" V 8580 3050 50  0001 C CNN
F 3 "" H 8650 3050 50  0001 C CNN
	1    8650 3050
	1    0    0    -1  
$EndComp
Connection ~ 5650 2250
Wire Wire Line
	8650 3200 8650 3900
$Comp
L Conn_02x05_Odd_Even J1
U 1 1 5EE34864
P 3050 3300
F 0 "J1" H 3100 3600 50  0000 C CNN
F 1 "Conn_02x05_Odd_Even" H 3100 3000 50  0000 C CNN
F 2 "" H 3050 3300 50  0001 C CNN
F 3 "" H 3050 3300 50  0001 C CNN
	1    3050 3300
	1    0    0    -1  
$EndComp
Wire Wire Line
	2250 2650 5050 2650
Wire Wire Line
	2350 2750 5050 2750
Wire Wire Line
	2450 2850 5050 2850
Wire Wire Line
	8650 2900 8650 2550
Wire Wire Line
	8650 2550 9150 2550
Wire Wire Line
	9150 2550 9150 5400
Wire Wire Line
	9150 5400 2450 5400
Wire Wire Line
	5650 4050 5650 5050
Wire Wire Line
	3350 3100 5050 3100
Wire Wire Line
	3350 3200 5050 3200
Wire Wire Line
	3350 3300 5050 3300
Wire Wire Line
	3350 3400 5050 3400
Wire Wire Line
	2250 2650 2250 3400
Wire Wire Line
	2250 3400 2850 3400
Wire Wire Line
	2350 2750 2350 3300
Wire Wire Line
	2350 3300 2850 3300
Wire Wire Line
	2450 2850 2450 3200
Wire Wire Line
	2450 3200 2850 3200
Wire Wire Line
	2850 3500 2450 3500
Wire Wire Line
	2450 3500 2450 5400
Wire Wire Line
	2850 3100 2550 3100
Wire Wire Line
	2550 3100 2550 4850
Wire Wire Line
	2550 4850 8350 4850
Wire Wire Line
	3350 3500 4200 3500
Wire Wire Line
	4200 3500 4200 2250
Wire Wire Line
	4200 2250 5650 2250
$EndSCHEMATC
