EESchema Schematic File Version 2
LIBS:power
LIBS:device
LIBS:switches
LIBS:relays
LIBS:motors
LIBS:transistors
LIBS:conn
LIBS:linear
LIBS:regul
LIBS:74xx
LIBS:cmos4000
LIBS:adc-dac
LIBS:memory
LIBS:xilinx
LIBS:microcontrollers
LIBS:dsp
LIBS:microchip
LIBS:analog_switches
LIBS:motorola
LIBS:texas
LIBS:intel
LIBS:audio
LIBS:interface
LIBS:digital-audio
LIBS:philips
LIBS:display
LIBS:cypress
LIBS:siliconi
LIBS:opto
LIBS:atmel
LIBS:contrib
LIBS:valves
LIBS:raspi_interface-cache
EELAYER 25 0
EELAYER END
$Descr A4 11693 8268
encoding utf-8
Sheet 1 1
Title "Interface for Raspberry Clock"
Date "2020-07-20"
Rev "B 1.0"
Comp ""
Comment1 ""
Comment2 ""
Comment3 ""
Comment4 ""
$EndDescr
$Comp
L +9V #PWR01
U 1 1 567DDCD7
P 5200 1050
F 0 "#PWR01" H 5200 900 50  0001 C CNN
F 1 "+9V" H 5218 1224 50  0000 C CNN
F 2 "" H 5200 1050 50  0000 C CNN
F 3 "" H 5200 1050 50  0000 C CNN
	1    5200 1050
	1    0    0    -1  
$EndComp
$Comp
L GND #PWR02
U 1 1 5E0D3CE7
P 3550 6100
F 0 "#PWR02" H 3550 5850 50  0001 C CNN
F 1 "GND" H 3550 5950 50  0000 C CNN
F 2 "" H 3550 6100 50  0001 C CNN
F 3 "" H 3550 6100 50  0001 C CNN
	1    3550 6100
	1    0    0    -1  
$EndComp
$Comp
L R R9
U 1 1 5EE213F7
P 4000 1650
F 0 "R9" H 3850 1600 50  0000 C CNN
F 1 "10k" H 3850 1700 50  0000 C CNN
F 2 "" V 3930 1650 50  0001 C CNN
F 3 "" H 4000 1650 50  0001 C CNN
	1    4000 1650
	-1   0    0    1   
$EndComp
$Comp
L Conn_02x05_Odd_Even J3
U 1 1 5EE34864
P 7850 1600
F 0 "J3" H 7900 1900 50  0000 C CNN
F 1 "Digit One (from right)" H 7900 1300 50  0000 C CNN
F 2 "" H 7850 1600 50  0001 C CNN
F 3 "" H 7850 1600 50  0001 C CNN
	1    7850 1600
	1    0    0    -1  
$EndComp
$Comp
L Conn_02x05_Odd_Even J4
U 1 1 5EE33F1D
P 7850 2750
F 0 "J4" H 7900 3050 50  0000 C CNN
F 1 "Digit Two (from right)" H 7900 2450 50  0000 C CNN
F 2 "" H 7850 2750 50  0001 C CNN
F 3 "" H 7850 2750 50  0001 C CNN
	1    7850 2750
	1    0    0    -1  
$EndComp
$Comp
L Conn_02x05_Odd_Even J5
U 1 1 5EE33F5D
P 7850 3950
F 0 "J5" H 7900 4250 50  0000 C CNN
F 1 "Digi Three (from right)" H 7900 3650 50  0000 C CNN
F 2 "" H 7850 3950 50  0001 C CNN
F 3 "" H 7850 3950 50  0001 C CNN
	1    7850 3950
	1    0    0    -1  
$EndComp
$Comp
L Conn_02x05_Odd_Even J6
U 1 1 5EE33FB3
P 7850 5200
F 0 "J6" H 7900 5500 50  0000 C CNN
F 1 "Digi Four (from right)" H 7900 4900 50  0000 C CNN
F 2 "" H 7850 5200 50  0001 C CNN
F 3 "" H 7850 5200 50  0001 C CNN
	1    7850 5200
	1    0    0    -1  
$EndComp
$Comp
L Conn_02x13_Odd_Even J1
U 1 1 5EE34307
P 1700 3850
F 0 "J1" H 1750 4550 50  0000 C CNN
F 1 "RaspPi Connector" H 1750 3150 50  0000 C CNN
F 2 "" H 1700 3850 50  0001 C CNN
F 3 "" H 1700 3850 50  0001 C CNN
	1    1700 3850
	1    0    0    -1  
$EndComp
Wire Wire Line
	8150 1400 8950 1400
Wire Wire Line
	8950 1400 8950 2050
Wire Wire Line
	8950 2050 8950 2550
Wire Wire Line
	8950 2550 8950 3750
Wire Wire Line
	8950 3750 8950 5000
Wire Wire Line
	8950 2550 8150 2550
Wire Wire Line
	8150 1500 9050 1500
Wire Wire Line
	9050 1500 9050 2150
Wire Wire Line
	9050 2150 9050 2650
Wire Wire Line
	9050 2650 9050 3850
Wire Wire Line
	9050 3850 9050 5100
Wire Wire Line
	9050 2650 8150 2650
Wire Wire Line
	8150 1600 9150 1600
Wire Wire Line
	9150 1600 9150 2250
Wire Wire Line
	9150 2250 9150 2750
Wire Wire Line
	9150 2750 9150 3950
Wire Wire Line
	9150 3950 9150 5200
Wire Wire Line
	9150 2750 8150 2750
Wire Wire Line
	8150 1700 9250 1700
Wire Wire Line
	9250 1700 9250 2350
Wire Wire Line
	9250 2350 9250 2850
Wire Wire Line
	9250 2850 9250 4050
Wire Wire Line
	9250 4050 9250 5300
Wire Wire Line
	9250 2850 8150 2850
Wire Wire Line
	8950 3750 8150 3750
Connection ~ 8950 2550
Wire Wire Line
	9050 3850 8150 3850
Connection ~ 9050 2650
Wire Wire Line
	9150 3950 8150 3950
Connection ~ 9150 2750
Wire Wire Line
	9250 4050 8150 4050
Connection ~ 9250 2850
Wire Wire Line
	8950 5000 8150 5000
Connection ~ 8950 3750
Wire Wire Line
	9050 5100 8150 5100
Connection ~ 9050 3850
Wire Wire Line
	9150 5200 8150 5200
Connection ~ 9150 3950
Wire Wire Line
	9250 5300 8150 5300
Connection ~ 9250 4050
Wire Wire Line
	8150 1800 8800 1800
Wire Wire Line
	8800 1150 8800 1800
Wire Wire Line
	8800 1800 8800 2950
Wire Wire Line
	8800 2950 8800 4150
Wire Wire Line
	8800 4150 8800 5400
Wire Wire Line
	8800 2950 8150 2950
Wire Wire Line
	8800 4150 8150 4150
Connection ~ 8800 2950
Wire Wire Line
	8800 5400 8150 5400
Connection ~ 8800 4150
$Comp
L R R11
U 1 1 5EE34FD5
P 4300 1650
F 0 "R11" H 4150 1600 50  0000 C CNN
F 1 "10k" H 4150 1700 50  0000 C CNN
F 2 "" V 4230 1650 50  0001 C CNN
F 3 "" H 4300 1650 50  0001 C CNN
	1    4300 1650
	-1   0    0    1   
$EndComp
$Comp
L R R13
U 1 1 5EE3503F
P 4600 1650
F 0 "R13" H 4450 1600 50  0000 C CNN
F 1 "10k" H 4450 1700 50  0000 C CNN
F 2 "" V 4530 1650 50  0001 C CNN
F 3 "" H 4600 1650 50  0001 C CNN
	1    4600 1650
	-1   0    0    1   
$EndComp
$Comp
L R R15
U 1 1 5EE350A9
P 4900 1650
F 0 "R15" H 4750 1600 50  0000 C CNN
F 1 "10k" H 4750 1700 50  0000 C CNN
F 2 "" V 4830 1650 50  0001 C CNN
F 3 "" H 4900 1650 50  0001 C CNN
	1    4900 1650
	-1   0    0    1   
$EndComp
Wire Wire Line
	4000 1800 4000 2050
Wire Wire Line
	4000 2050 4000 3300
Wire Wire Line
	4000 2050 8950 2050
Connection ~ 8950 2050
Wire Wire Line
	4300 2150 9050 2150
Connection ~ 9050 2150
Wire Wire Line
	4600 2250 9150 2250
Connection ~ 9150 2250
Wire Wire Line
	4900 2350 9250 2350
Connection ~ 9250 2350
Wire Wire Line
	7350 2550 7650 2550
Wire Wire Line
	7350 3750 7650 3750
Connection ~ 7350 2550
Wire Wire Line
	7350 5000 7650 5000
Connection ~ 7350 3750
$Comp
L R R10
U 1 1 5EE37B77
P 5200 1650
F 0 "R10" H 5050 1600 50  0000 C CNN
F 1 "10k" H 5050 1700 50  0000 C CNN
F 2 "" V 5130 1650 50  0001 C CNN
F 3 "" H 5200 1650 50  0001 C CNN
	1    5200 1650
	-1   0    0    1   
$EndComp
$Comp
L R R12
U 1 1 5EE37B7D
P 5500 1650
F 0 "R12" H 5350 1600 50  0000 C CNN
F 1 "10k" H 5350 1700 50  0000 C CNN
F 2 "" V 5430 1650 50  0001 C CNN
F 3 "" H 5500 1650 50  0001 C CNN
	1    5500 1650
	-1   0    0    1   
$EndComp
$Comp
L R R14
U 1 1 5EE37B83
P 5800 1650
F 0 "R14" H 5650 1600 50  0000 C CNN
F 1 "10k" H 5650 1700 50  0000 C CNN
F 2 "" V 5730 1650 50  0001 C CNN
F 3 "" H 5800 1650 50  0001 C CNN
	1    5800 1650
	-1   0    0    1   
$EndComp
Wire Wire Line
	4000 1150 4000 1500
Wire Wire Line
	5200 1050 5200 1150
Wire Wire Line
	5200 1150 5200 1500
Wire Wire Line
	5500 1150 5500 1500
Wire Wire Line
	5800 1150 5800 1500
Connection ~ 7350 3450
Wire Wire Line
	7350 1400 7650 1400
Connection ~ 7350 5000
Wire Wire Line
	4000 1150 4300 1150
Wire Wire Line
	4300 1150 4600 1150
Wire Wire Line
	4600 1150 4900 1150
Wire Wire Line
	4900 1150 5200 1150
Wire Wire Line
	5200 1150 5500 1150
Wire Wire Line
	5500 1150 5800 1150
Wire Wire Line
	5800 1150 6100 1150
Wire Wire Line
	6100 1150 6400 1150
Wire Wire Line
	6400 1150 7150 1150
Wire Wire Line
	7150 1150 8800 1150
Connection ~ 8800 1800
Text Notes 7450 4600 0    60   ~ 12
Decimal point is hardwired.\n3rd digit is used.
$Comp
L Conn_01x02_Male J2
U 1 1 5EE44AA9
P 1800 1550
F 0 "J2" H 1800 1650 50  0000 C CNN
F 1 "Power Connector 9V" H 1800 1350 50  0000 C CNN
F 2 "" H 1800 1550 50  0001 C CNN
F 3 "" H 1800 1550 50  0001 C CNN
	1    1800 1550
	1    0    0    -1  
$EndComp
$Comp
L +9V #PWR03
U 1 1 5EE44B5B
P 2250 1350
F 0 "#PWR03" H 2250 1200 50  0001 C CNN
F 1 "+9V" H 2268 1524 50  0000 C CNN
F 2 "" H 2250 1350 50  0000 C CNN
F 3 "" H 2250 1350 50  0000 C CNN
	1    2250 1350
	1    0    0    -1  
$EndComp
$Comp
L GND #PWR04
U 1 1 5EE44BD2
P 2250 1850
F 0 "#PWR04" H 2250 1600 50  0001 C CNN
F 1 "GND" H 2250 1700 50  0000 C CNN
F 2 "" H 2250 1850 50  0001 C CNN
F 3 "" H 2250 1850 50  0001 C CNN
	1    2250 1850
	1    0    0    -1  
$EndComp
Wire Wire Line
	2000 1550 2250 1550
Wire Wire Line
	2250 1550 2250 1350
Wire Wire Line
	2000 1650 2250 1650
Wire Wire Line
	2250 1650 2250 1850
Text Notes 9600 3400 0    60   ~ 12
Pins for Connector J2 - J6\n1 - GND\n2 - A (BCD)\n3 - LE/STROBE\n4 - B (BCD)\n5 - BL\n6 - C (BCD)\n7 - Lamp Test\n8 - D (BCD)\n9 - Decimal Point (DP)\n
$Comp
L R R16
U 1 1 5EE48BAE
P 6100 1650
F 0 "R16" H 5950 1600 50  0000 C CNN
F 1 "10k" H 5950 1700 50  0000 C CNN
F 2 "" V 6030 1650 50  0001 C CNN
F 3 "" H 6100 1650 50  0001 C CNN
	1    6100 1650
	-1   0    0    1   
$EndComp
Wire Wire Line
	6100 1150 6100 1500
Wire Wire Line
	7650 1700 7250 1700
Wire Wire Line
	7250 2850 7650 2850
Wire Wire Line
	7250 4050 7650 4050
Connection ~ 7250 2850
Wire Wire Line
	7250 5300 7650 5300
Connection ~ 7250 4050
Wire Wire Line
	7650 1600 7150 1600
Wire Wire Line
	7150 1150 7150 1600
Wire Wire Line
	7150 1600 7150 2750
Wire Wire Line
	7150 2750 7150 3950
Wire Wire Line
	7150 3950 7150 5200
Wire Wire Line
	7150 2750 7650 2750
Wire Wire Line
	7150 3950 7650 3950
Connection ~ 7150 2750
Wire Wire Line
	7150 5200 7650 5200
Connection ~ 7150 3950
Connection ~ 7150 1150
Connection ~ 7150 1600
$Comp
L R R17
U 1 1 5EE4AC5D
P 6400 1650
F 0 "R17" H 6250 1600 50  0000 C CNN
F 1 "10k" H 6250 1700 50  0000 C CNN
F 2 "" V 6330 1650 50  0001 C CNN
F 3 "" H 6400 1650 50  0001 C CNN
	1    6400 1650
	-1   0    0    1   
$EndComp
$Comp
L SW_DPST_x2 SW1
U 1 1 5EE4C32E
P 6400 5600
F 0 "SW1" H 6400 5725 50  0000 C CNN
F 1 "SW_DPST_x2" H 6400 5500 50  0000 C CNN
F 2 "" H 6400 5600 50  0001 C CNN
F 3 "" H 6400 5600 50  0001 C CNN
	1    6400 5600
	0    -1   -1   0   
$EndComp
Wire Wire Line
	6400 5950 6400 5800
Connection ~ 6400 5950
Wire Wire Line
	1500 3550 1300 3550
Wire Wire Line
	1300 3550 1300 2850
Wire Wire Line
	1300 2850 3100 2850
Wire Wire Line
	1500 3750 1200 3750
Wire Wire Line
	1200 3750 1200 2950
Wire Wire Line
	1200 2950 3000 2950
Wire Wire Line
	1500 3850 1100 3850
Wire Wire Line
	1100 3850 1100 3050
Wire Wire Line
	1100 3050 2900 3050
Wire Wire Line
	1500 3950 1000 3950
Wire Wire Line
	1000 3950 1000 3150
Wire Wire Line
	1500 4250 1100 4250
Wire Wire Line
	1100 4250 1100 4750
Wire Wire Line
	1100 4750 2800 4750
Wire Wire Line
	1500 4350 1000 4350
Wire Wire Line
	1000 4350 1000 4850
Wire Wire Line
	1000 4850 2900 4850
Wire Wire Line
	2000 3750 2200 3750
Wire Wire Line
	2200 3750 2200 4350
Wire Wire Line
	2200 4350 3000 4350
Wire Wire Line
	2000 3950 2300 3950
Wire Wire Line
	2300 3950 2300 4250
Wire Wire Line
	2300 4250 3100 4250
Text Notes 6700 5650 0    60   ~ 12
Lamp Test
Wire Wire Line
	1300 4450 1500 4450
Wire Wire Line
	2400 4150 2000 4150
Wire Wire Line
	2400 5950 2400 4150
Wire Wire Line
	2400 4150 2400 3850
Wire Wire Line
	2400 3850 2400 3450
Wire Wire Line
	2400 3850 2000 3850
Connection ~ 2400 3850
Connection ~ 2400 4150
Connection ~ 1300 4450
$Comp
L ULN2803A U?
U 1 1 5F119813
P 3550 3600
F 0 "U?" H 3550 4125 50  0000 C CNN
F 1 "ULN2803A" H 3550 4050 50  0000 C CNN
F 2 "" H 3600 2950 50  0001 L CNN
F 3 "" H 3650 3500 50  0001 C CNN
	1    3550 3600
	1    0    0    -1  
$EndComp
Wire Wire Line
	3150 3300 3100 3300
Wire Wire Line
	3100 3300 3100 2850
Wire Wire Line
	3000 2950 3000 3400
Wire Wire Line
	3000 3400 3150 3400
Wire Wire Line
	2900 3050 2900 3500
Wire Wire Line
	2900 3500 3150 3500
Wire Wire Line
	1000 3150 2800 3150
Wire Wire Line
	2800 3150 2800 3600
Wire Wire Line
	2800 3600 3150 3600
Wire Wire Line
	4000 3300 3950 3300
Wire Wire Line
	4300 1800 4300 2150
Wire Wire Line
	4300 2150 4300 3400
Wire Wire Line
	4300 3400 3950 3400
Wire Wire Line
	4600 1800 4600 2250
Wire Wire Line
	4600 2250 4600 3500
Wire Wire Line
	4600 3500 3950 3500
Connection ~ 4000 2050
Connection ~ 4300 2150
Connection ~ 4600 2250
Wire Wire Line
	4300 1500 4300 1150
Connection ~ 4300 1150
Wire Wire Line
	4600 1500 4600 1150
Connection ~ 4600 1150
Wire Wire Line
	4900 1800 4900 2350
Wire Wire Line
	4900 2350 4900 3600
Connection ~ 4900 2350
Wire Wire Line
	4900 3600 3950 3600
Wire Wire Line
	4900 1500 4900 1150
Connection ~ 4900 1150
Connection ~ 5200 1150
Connection ~ 5500 1150
Connection ~ 5800 1150
Connection ~ 6100 1150
Wire Wire Line
	5200 1800 5200 2550
Wire Wire Line
	5200 2550 5200 3700
Wire Wire Line
	5200 3700 3950 3700
Wire Wire Line
	5500 3800 3950 3800
Wire Wire Line
	5500 1800 5500 2650
Wire Wire Line
	5500 2650 5500 3800
Wire Wire Line
	5800 3900 3950 3900
Wire Wire Line
	5800 1800 5800 2750
Wire Wire Line
	5800 2750 5800 3900
Wire Wire Line
	6100 4000 3950 4000
Wire Wire Line
	6100 1800 6100 2850
Wire Wire Line
	6100 2850 6100 4000
Connection ~ 6400 1150
Wire Wire Line
	7250 1950 6400 1950
Connection ~ 6400 1950
Connection ~ 7250 1950
Wire Wire Line
	7250 1700 7250 1950
Wire Wire Line
	7250 1950 7250 2850
Wire Wire Line
	7250 2850 7250 4050
Wire Wire Line
	7250 4050 7250 5300
Wire Wire Line
	7350 5950 7350 5000
Wire Wire Line
	7350 5000 7350 3750
Wire Wire Line
	7350 3750 7350 3450
Wire Wire Line
	7350 3450 7350 2550
Wire Wire Line
	7350 2550 7350 1400
Wire Wire Line
	1300 5950 2400 5950
Wire Wire Line
	2400 5950 3550 5950
Wire Wire Line
	3550 5950 6400 5950
Wire Wire Line
	6400 5950 7350 5950
Wire Wire Line
	6400 1150 6400 1500
Wire Wire Line
	6400 1800 6400 1950
Wire Wire Line
	6400 1950 6400 5400
Wire Wire Line
	7650 1500 7050 1500
Wire Wire Line
	7050 1500 7050 2550
Wire Wire Line
	7050 2550 5200 2550
Connection ~ 5200 2550
Wire Wire Line
	5500 2650 7650 2650
Connection ~ 5500 2650
Wire Wire Line
	7650 3850 7050 3850
Wire Wire Line
	7050 3850 7050 2750
Wire Wire Line
	7050 2750 5800 2750
Connection ~ 5800 2750
Wire Wire Line
	7650 5100 6950 5100
Wire Wire Line
	6950 5100 6950 2850
Wire Wire Line
	6950 2850 6100 2850
Connection ~ 6100 2850
Wire Wire Line
	2800 4750 2800 3700
Wire Wire Line
	2800 3700 3150 3700
Wire Wire Line
	3150 3800 2900 3800
Wire Wire Line
	2900 3800 2900 4850
Wire Wire Line
	3150 3900 3000 3900
Wire Wire Line
	3000 3900 3000 4350
Wire Wire Line
	3150 4000 3100 4000
Wire Wire Line
	3100 4000 3100 4250
Connection ~ 2400 5950
Wire Wire Line
	2400 3450 2000 3450
Wire Wire Line
	1500 3650 1300 3650
Wire Wire Line
	1300 3650 1300 4450
Wire Wire Line
	1300 4450 1300 5950
Wire Wire Line
	3550 4300 3550 5950
Wire Wire Line
	3550 5950 3550 6100
Connection ~ 3550 5950
$EndSCHEMATC
